{
  "botQuestion": [
    {
      "id": "1",
      "field": "Hi, I'm Aria, Netmeds Doctor’s Assistant.",
      "role": "doctor",
      "type": "text",
      "nextIndex": 1,
      "isContinue": true
    },
    {
      "id": "2",
      "field": "Who is this consultation for?",
      "role": "doctor",
      "type": "text",
      "nextIndex": 2,
      "isContinue": false
    },
    {
      "id": "3",
      "field": "Please choose the specialist you want to consult.(If you are not sure, please select General Physician)",
      "role": "doctor",
      "type": "text",
      "nextIndex": 3,
      "isContinue": false
    },
    {
      "id": "4",
      "field": "Alright, do you have any specific symptoms that you'd like to report",
      "role": "doctor",
      "type": "text",
      "nextIndex": 4,
      "isContinue": false
    },
    {
      "id": "5",
      "field": "Okay, so here are a few matched doctors. One of them will pick your case",
      "role": "doctor",
      "type": "text",
      "nextIndex": 5,
      "isContinue": false
    },
    {
      "id": "6",
      "field": "Please select the mode of consultation",
      "role": "doctor",
      "type": "text",
      "nextIndex": 6,
      "isContinue": false
    },
    {
      "id": "7",
      "field": "Here are a few payment options for this consultation",
      "role": "doctor",
      "type": "text",
      "nextIndex": 7,
      "isContinue": false
    },
    {
      "id": "8",
      "field": "Before we send your case, can you please help the doctor with a few more details?",
      "role": "doctor",
      "type": "text",
      "nextIndex": 8,
      "isContinue": true
    }
  ]
}