{
  "gyna": [
    {
      "id": "1",
      "field": "Please select an area of concern from the following",
      "fieldType": "Dropdown",
      "type": "text",
      "role": "doctor",
      "options": [
        {
          "option": "Missing period",
          "checked": false
        },
        {
          "option": "Pregnancy",
          "checked": false
        },
        {
          "option": "Menstrual cramps",
          "checked": false
        },
        {
          "option": "Difficulty in conceiving",
          "checked": false
        },
        {
          "option": "PCOD/PCOS",
          "checked": false
        },
        {
          "option": "Discharge related",
          "checked": false
        },
        {
          "option": "Unprotected Intercourse",
          "checked": false
        },
        {
          "option": "Contraception",
          "checked": false
        },
        {
          "option": "Other",
          "checked": false
        }
      ],
      "nextIndex": 1
    },
    {
      "id": "2",
      "field": "When was your last period?",
      "fieldType": "Date",
      "type": "text",
      "role": "doctor",
      "options": [],
      "nextIndex": 2
    },
    {
      "id": "3",
      "field": "Do you have any of the following conditions?",
      "fieldType": "Multiple choice",
      "type": "text",
      "role": "doctor",
      "options": [
        {
          "option": "PCOD/PCOS",
          "checked": false
        },
        {
          "option": "Thyroid",
          "checked": false
        },
        {
          "option": "Diabetes",
          "checked": false
        },
        {
          "option": "None of above",
          "checked": false
        }
      ],
      "nextIndex": 3
    },
    {
      "id": "4",
      "field": "Please attach the reports/x-ray/Images of the affected area for your diagnosis (Highly recommended for a successful consultation)",
      "fieldType": "Attach",
      "type": "text",
      "role": "doctor",
      "options": [],
      "nextIndex": 4
    },
    {
      "id": "5",
      "field": "Please add some symptoms from the following",
      "fieldType": "Multiple option with text",
      "type": "text",
      "role": "doctor",
      "options": [
        {
          "option": "Irregular periods",
          "checked": false
        },
        {
          "option": "Brown/White discharge",
          "checked": false
        },
        {
          "option": "Abdominal pain/cramps",
          "checked": false
        },
        {
          "option": "Difficulty in conceiving",
          "checked": false
        },
        {
          "option": "Other",
          "checked": false
        }
      ],
      "nextIndex": 5
    },
    {
      "id": "6",
      "field": "Are you sexually active?",
      "fieldType": "Radio",
      "type": "text",
      "role": "doctor",
      "options": [
        {
          "label": "Yes",
          "value": "Yes"
        },
        {
          "label": "No",
          "value": "No"
        }
      ],
      "nextIndex": 6
    },
    {
      "id": "7",
      "field": "What is the date of your last intercourse?",
      "fieldType": "Date",
      "type": "text",
      "role": "doctor",
      "options": []
    }
  ],
  "der": [
    {
      "id": "1",
      "field": "Please select an area of concern from the following",
      "fieldType": "Dropdown",
      "type": "text",
      "role": "doctor",
      "options": [
        {
          "option": "Unknown Rash",
          "checked": false
        },
        {
          "option": "Acne & Pimples",
          "checked": false
        },
        {
          "option": "Hair Fall",
          "checked": false
        },
        {
          "option": "Skin pigmentation",
          "checked": false
        },
        {
          "option": "Sexually transmitted infections",
          "checked": false
        },
        {
          "option": "Psoriasis",
          "checked": false
        },
        {
          "option": "Skin allergy",
          "checked": false
        },
        {
          "option": "Vitiligo",
          "checked": false
        },
        {
          "option": "Other",
          "checked": false
        }
      ],
      "nextIndex": 1
    },
    {
      "id": "2",
      "field": "Since how long have you been experiencing the issue?",
      "fieldType": "Text",
      "type": "text",
      "role": "doctor",
      "options": [],
      "nextIndex": 2
    },
    {
      "id": "3",
      "field": "Please attach the reports/x-ray/Images of the affected area for your diagnosis (Highly recommended for a successful consultation)",
      "fieldType": "Attach",
      "type": "text",
      "role": "doctor",
      "options": []
    }
  ],
  "radio": [
    {
      "id": "1",
      "field": "Please attach the reports/x-ray/Images of the affected area for your diagnosis (Highly recommended for a successful consultation)",
      "fieldType": "Attach",
      "type": "text",
      "role": "doctor",
      "options": [],
      "nextIndex": 1
    },
    {
      "id": "2",
      "field": "Date of last Scan or X-Ray",
      "fieldType": "Date",
      "type": "text",
      "role": "doctor",
      "options": []
    }
  ],
  "onco": [
    {
      "id": "1",
      "field": "Please attach the reports/x-ray/Images of the affected area for your diagnosis (Highly recommended for a successful consultation)",
      "fieldType": "Attach",
      "type": "text",
      "role": "doctor",
      "options": [],
      "nextIndex": 1
    },
    {
      "id": "2",
      "field": "Date of last report",
      "fieldType": "Date",
      "type": "text",
      "role": "doctor",
      "options": []
    }
  ],
  "cardio": [
    {
      "id": "1",
      "field": "Please attach the reports/x-ray/Images of the affected area for your diagnosis (Highly recommended for a successful consultation)",
      "fieldType": "Attach",
      "type": "text",
      "role": "doctor",
      "options": [],
      "nextIndex": 1
    },
    {
      "id": "2",
      "field": "Date of last report",
      "fieldType": "Date",
      "type": "text",
      "role": "doctor",
      "options": []
    }
  ],
  "sexo": [
    {
      "id": "1",
      "field": "Problem category",
      "fieldType": "Dropdown",
      "type": "text",
      "role": "doctor",
      "options": [
        {
          "option": "Decreased Libido",
          "checked": false
        },
        {
          "option": "Premature Ejaculation",
          "checked": false
        },
        {
          "option": "Erectile Dysfunction",
          "checked": false
        },
        {
          "option": "STI",
          "checked": false
        },
        {
          "option": "Sex Addiction",
          "checked": false
        },
        {
          "option": "Unprotected Coitus",
          "checked": false
        },
        {
          "option": "Night Falls",
          "checked": false
        },
        {
          "option": "Low Sperm Count",
          "checked": false
        },
        {
          "option": "Other",
          "checked": false
        }
      ],
      "nextIndex": 1
    },
    {
      "id": "2",
      "field": "Do you have any of the following conditions?",
      "fieldType": "Multiple choice",
      "type": "text",
      "role": "doctor",
      "options": [
        {
          "option": "Diabetes",
          "checked": false
        },
        {
          "option": "Cholesterol",
          "checked": false
        },
        {
          "option": "Hypertension",
          "checked": false
        },
        {
          "option": "None",
          "checked": false
        }
      ],
      "nextIndex": 2
    },
    {
      "id": "3",
      "field": "Please attach the reports/x-ray/Images of the affected area for your diagnosis (Highly recommended for a successful consultation)",
      "fieldType": "Attach",
      "type": "text",
      "role": "doctor",
      "options": [],
      "nextIndex": 3
    },
    {
      "id": "4",
      "field": "Select the symptoms that you are facing.",
      "fieldType": "Multiple option with text",
      "type": "text",
      "role": "doctor",
      "options": [
        {
          "option": "Early discharge",
          "checked": false
        },
        {
          "option": "Lack of interest in sex",
          "checked": false
        },
        {
          "option": "Rashes/Infection",
          "checked": false
        },
        {
          "option": "Uncontrollable urge for sex",
          "checked": false
        },
        {
          "option": "Other",
          "checked": false
        }
      ]
    }
  ],
  "pedia": [
    {
      "id": "1",
      "field": "Problem category",
      "fieldType": "Dropdown",
      "type": "text",
      "role": "doctor",
      "options": [
        {
          "option": "Allergic Reaction",
          "checked": false
        },
        {
          "option": "Rh Incompatibility",
          "checked": false
        },
        {
          "option": "Milk Allergy",
          "checked": false
        },
        {
          "option": "Breastfeeding",
          "checked": false
        },
        {
          "option": "Diarrhoea",
          "checked": false
        },
        {
          "option": "Immunodeficiency",
          "checked": false
        },
        {
          "option": "Fever",
          "checked": false
        },
        {
          "option": "Delayed milestones",
          "checked": false
        },
        {
          "option": "Other",
          "checked": false
        }
      ],
      "nextIndex": 1
    },
    {
      "id": "2",
      "field": "How old is the child?",
      "fieldType": "Text",
      "type": "text",
      "role": "doctor",
      "options": [],
      "nextIndex": 2
    },
    {
      "id": "3",
      "field": "Are all vaccinations administered on schedule?",
      "fieldType": "Radio",
      "type": "text",
      "role": "doctor",
      "options": [
        {
          "label": "Yes",
          "value": "Yes"
        },
        {
          "label": "No",
          "value": "No"
        }
      ],
      "nextIndex": 3
    },
    {
      "id": "4",
      "field": "Please attach the reports/x-ray/Images of the affected area for your diagnosis (Highly recommended for a successful consultation)",
      "fieldType": "Attach",
      "type": "text",
      "role": "doctor",
      "options": []
    }
  ],
  "psych": [
    {
      "id": "1",
      "field": "Problem category",
      "fieldType": "Dropdown",
      "type": "text",
      "role": "doctor",
      "options": [
        {
          "option": "Anxiety",
          "checked": false
        },
        {
          "option": "Mentally Challenged",
          "checked": false
        },
        {
          "option": "Depression",
          "checked": false
        },
        {
          "option": "Relationship Issues",
          "checked": false
        },
        {
          "option": "Child Psychology",
          "checked": false
        },
        {
          "option": "Other",
          "checked": false
        }
      ],
      "nextIndex": 1
    },
    {
      "id": "2",
      "field": "How long have you been experiencing the problem?",
      "fieldType": "Text",
      "type": "text",
      "role": "doctor",
      "options": [],
      "nextIndex": 2
    },
    {
      "id": "3",
      "field": "Have you tried counselling previously regarding this problem?",
      "fieldType": "Radio",
      "type": "text",
      "role": "doctor",
      "options": [
        {
          "label": "Yes",
          "value": "Yes"
        },
        {
          "label": "No",
          "value": "No"
        }
      ],
      "nextIndex": 3
    },
    {
      "id": "4",
      "field": "What is the reason that you would like to undergo another counselling?",
      "fieldType": "Multiple option with text",
      "type": "text",
      "role": "doctor",
      "options": [
        {
          "option": "Not effective",
          "checked": false
        },
        {
          "option": "Want to try another psychologist",
          "checked": false
        },
        {
          "option": "No particular reason",
          "checked": false
        },
        {
          "option": "Other",
          "checked": false
        }
      ]
    }
  ],
  "ortho": [
    {
      "id": "1",
      "field": "What is the problem that you are facing now?",
      "fieldType": "Text",
      "type": "text",
      "role": "doctor",
      "options": [],
      "nextIndex": 1
    },
    {
      "id": "2",
      "field": "Please attach the reports/x-ray/Images of the affected area for your diagnosis (Highly recommended for a successful consultation)",
      "fieldType": "Attach",
      "type": "text",
      "role": "doctor",
      "options": [],
      "nextIndex": 2
    },
    {
      "id": "3",
      "field": "Date of last Scan or X-Ray",
      "fieldType": "Date",
      "type": "text",
      "role": "doctor",
      "options": []
    }
  ],
  "nutri": [
    {
      "id": "1",
      "field": "Problem category",
      "fieldType": "Dropdown",
      "type": "text",
      "role": "doctor",
      "options": [
        {
          "option": "Weight Loss",
          "checked": false
        },
        {
          "option": "Weight Gain",
          "checked": false
        },
        {
          "option": "Healthy diet",
          "checked": false
        },
        {
          "option": "Diet for Irritable Bowel Syndrome",
          "checked": false
        },
        {
          "option": "Other",
          "checked": false
        }
      ],
      "nextIndex": 1
    },
    {
      "id": "2",
      "field": "How long have you been experiencing the problem?",
      "fieldType": "Text",
      "type": "text",
      "role": "doctor",
      "options": [],
      "nextIndex": 2
    },
    {
      "id": "3",
      "field": "Have you tried any specific diet for your goal?",
      "fieldType": "Radio",
      "type": "text",
      "role": "doctor",
      "options": [
        {
          "label": "Yes",
          "value": "Yes"
        },
        {
          "label": "No",
          "value": "No"
        }
      ],
      "nextIndex": 3
    },
    {
      "id": "4",
      "field": "Why do you think that diet was not effective for you?",
      "fieldType": "Multiple option with text",
      "type": "text",
      "role": "doctor",
      "options": [
        {
          "option": "Diet plan was not effective",
          "checked": false
        },
        {
          "option": "Did not adhere to the plan",
          "checked": false
        },
        {
          "option": "No particular reason",
          "checked": false
        },
        {
          "option": "Other",
          "checked": false
        }
      ]
    }
  ],
  "gas": [
    {
      "id": "1",
      "field": "What is the problem that you are facing now?",
      "fieldType": "Text",
      "type": "text",
      "role": "doctor",
      "options": [],
      "nextIndex": 1
    },
    {
      "id": "2",
      "field": "Please attach the reports/x-ray/Images of the affected area for your diagnosis (Highly recommended for a successful consultation)",
      "fieldType": "Attach",
      "type": "text",
      "role": "doctor",
      "options": [],
      "nextIndex": 2
    },
    {
      "id": "3",
      "field": "Date of last report",
      "fieldType": "Date",
      "type": "text",
      "role": "doctor",
      "options": []
    }
  ],
  "ent": [
    {
      "id": "1",
      "field": "What is the problem that you are facing now?",
      "fieldType": "Text",
      "type": "text",
      "role": "doctor",
      "options": [],
      "nextIndex": 1
    },
    {
      "id": "2",
      "field": "Please attach the reports/x-ray/Images of the affected area for your diagnosis (Highly recommended for a successful consultation)",
      "fieldType": "Attach",
      "type": "text",
      "role": "doctor",
      "options": [],
      "nextIndex": 2
    },
    {
      "id": "3",
      "field": "Date of last report",
      "fieldType": "Date",
      "type": "text",
      "role": "doctor",
      "options": []
    }
  ],
  "pulmo": [
    {
      "id": "1",
      "field": "What is the problem that you are facing now?",
      "fieldType": "Text",
      "type": "text",
      "role": "doctor",
      "options": [],
      "nextIndex": 1
    },
    {
      "id": "2",
      "field": "Please attach the reports/x-ray/Images of the affected area for your diagnosis (Highly recommended for a successful consultation)",
      "fieldType": "Attach",
      "type": "text",
      "role": "doctor",
      "options": [],
      "nextIndex": 2
    },
    {
      "id": "3",
      "field": "Date of last report",
      "fieldType": "Date",
      "type": "text",
      "role": "doctor",
      "options": []
    }
  ],
  "ophtha": [
    {
      "id": "1",
      "field": "What is the problem that you are facing now?",
      "fieldType": "Text",
      "type": "text",
      "role": "doctor",
      "options": [],
      "nextIndex": 1
    },
    {
      "id": "2",
      "field": "Please attach the reports/x-ray/Images of the affected area for your diagnosis (Highly recommended for a successful consultation)",
      "fieldType": "Attach",
      "type": "text",
      "role": "doctor",
      "options": [],
      "nextIndex": 2
    },
    {
      "id": "3",
      "field": "Date of last report",
      "fieldType": "Date",
      "type": "text",
      "role": "doctor",
      "options": []
    }
  ],
  "endo": [
    {
      "id": "1",
      "field": "What is the problem that you are facing now?",
      "fieldType": "Text",
      "type": "text",
      "role": "doctor",
      "options": [],
      "nextIndex": 1
    },
    {
      "id": "2",
      "field": "Please attach the reports/x-ray/Images of the affected area for your diagnosis (Highly recommended for a successful consultation)",
      "fieldType": "Attach",
      "type": "text",
      "role": "doctor",
      "options": [],
      "nextIndex": 2
    },
    {
      "id": "3",
      "field": "Date of last report",
      "fieldType": "Date",
      "type": "text",
      "role": "doctor",
      "options": []
    }
  ],
  "gen": [
    {
      "id": "1",
      "field": "Problem category",
      "fieldType": "Dropdown",
      "type": "text",
      "role": "doctor",
      "options": [
        {
          "option": "Fever",
          "checked": false
        },
        {
          "option": "Constipation",
          "checked": false
        },
        {
          "option": "UTI",
          "checked": false
        },
        {
          "option": "Measles",
          "checked": false
        },
        {
          "option": "Dry Cough",
          "checked": false
        },
        {
          "option": "Back Pain",
          "checked": false
        },
        {
          "option": "Chest Pain",
          "checked": false
        },
        {
          "option": "Thyroid Related",
          "checked": false
        },
        {
          "option": "Asthma",
          "checked": false
        },
        {
          "option": "Appendicitis",
          "checked": false
        },
        {
          "option": "Stomach Problem",
          "checked": false
        },
        {
          "option": "Diabetes",
          "checked": false
        },
        {
          "option": "Gastritis",
          "checked": false
        },
        {
          "option": "Sinusitis",
          "checked": false
        },
        {
          "option": "Migraine",
          "checked": false
        },
        {
          "option": "Other",
          "checked": false
        }
      ],
      "nextIndex": 1
    },
    {
      "id": "2",
      "field": "Since how long have you been experiencing the issue?",
      "fieldType": "Text",
      "type": "text",
      "role": "doctor",
      "options": [],
      "nextIndex": 2
    },
    {
      "id": "3",
      "field": "Select the symptoms that you are facing.",
      "fieldType": "Multiple option with text",
      "type": "text",
      "role": "doctor",
      "options": [
        {
          "option": "Cough",
          "checked": false
        },
        {
          "option": "Cold",
          "checked": false
        },
        {
          "option": "Rashes",
          "checked": false
        },
        {
          "option": "Joint Pain",
          "checked": false
        },
        {
          "option": "Breathlessness",
          "checked": false
        },
        {
          "option": "Dizziness",
          "checked": false
        },
        {
          "option": "Stomach Ache",
          "checked": false
        },
        {
          "option": "Headache",
          "checked": false
        },
        {
          "option": "Fatigue",
          "checked": false
        },
        {
          "option": "Other",
          "checked": false
        }
      ],
      "nextIndex": 3
    },
    {
      "id": "4",
      "field": "Please attach the reports/x-ray/Images of the affected area for your diagnosis (Highly recommended for a successful consultation)",
      "fieldType": "Attach",
      "type": "text",
      "role": "doctor",
      "options": []
    }
  ]
}