{
  "project_info": {
    "project_number": "667464643048",
    "firebase_url": "https://netmeds-967.firebaseio.com",
    "project_id": "netmeds-967",
    "storage_bucket": "netmeds-967.appspot.com"
  },
  "client": [
    {
      "client_info": {
        "mobilesdk_app_id": "1:667464643048:android:007892a75952aa8c",
        "android_client_info": {
          "package_name": "com.NetmedsMarketplace.Netmeds"
        }
      },
      "oauth_client": [
        {
          "client_id": "667464643048-9fd8n9opvv9l1ln78k7m0gstm8sbnjoa.apps.googleusercontent.com",
          "client_type": 1,
          "android_info": {
            "package_name": "com.NetmedsMarketplace.Netmeds",
            "certificate_hash": "2b1dd1fa2bb29769329a511054b9d6410c2e496f"
          }
        }
      ],
      "api_key": [
        {
          "current_key": "AIzaSyCUmcGPwxeF_SffLi4gKpsPqoqY-3t1ViU"
        }
      ],
      "services": {
        "appinvite_service": {
          "other_platform_oauth_client": [
            {
              "client_id": "667464643048-b2v59snqvhu16v2alrrdslcso64ujrva.apps.googleusercontent.com",
              "client_type": 3
            },
            {
              "client_id": "667464643048-q86upv8aa07isqb79sa6qnip9cpd5222.apps.googleusercontent.com",
              "client_type": 2,
              "ios_info": {
                "bundle_id": "com.NetmedsMarketplace.Netmeds"
              }
            }
          ]
        }
      }
    }
  ],
  "configuration_version": "1"
}